{
  "files": {
    "main.css": "./static/css/main.3cf13eba.css",
    "main.js": "./static/js/main.313cf465.js",
    "static/css/64.bba8fa55.chunk.css": "./static/css/64.bba8fa55.chunk.css",
    "static/js/64.56dc6704.chunk.js": "./static/js/64.56dc6704.chunk.js",
    "static/css/769.b3cbb36b.chunk.css": "./static/css/769.b3cbb36b.chunk.css",
    "static/js/769.bda0d7b7.chunk.js": "./static/js/769.bda0d7b7.chunk.js",
    "static/media/figure.png": "./static/media/figure.4b1c811c83cbf9a6986b.png",
    "static/media/Montserrat-Regular.ttf": "./static/media/Montserrat-Regular.3cd786652b8a2e9d41f2.ttf",
    "static/media/HCMUT_official_logo.png": "./static/media/HCMUT_official_logo.36e26af924156e77a9cf.png",
    "static/media/Agustina.woff": "./static/media/Agustina.eb0c59dda4cc308cba96.woff",
    "static/media/game-lai-may-bay-1.jpg": "./static/media/game-lai-may-bay-1.20cdd3f1073501e23faa.jpg",
    "static/media/set-tra-sua-phuc-long-1.jpg": "./static/media/set-tra-sua-phuc-long-1.02221838d72c1eaf3598.jpg",
    "static/media/logohcb.png": "./static/media/logohcb.f1089dc80fcfd4ce2aaf.png",
    "static/media/Code.org_logo.svg.png": "./static/media/Code.org_logo.svg.abaeae73c5547c90d100.png",
    "static/media/manOnTable.svg": "./static/media/manOnTable.8f117eb207e57ed8f89d67d595aceb45.svg",
    "static/media/toyota.jpg": "./static/media/toyota.fe309f0c69aa07e99f0f.jpg",
    "static/media/contactMailDark.svg": "./static/media/contactMailDark.1db650d351729a0f17b4e3104e6a7b7a.svg",
    "static/media/developerActivity.svg": "./static/media/developerActivity.2c0445cae86f4243433a2f5a22b2c031.svg",
    "static/media/skill.svg": "./static/media/skill.35a147662ab0a1d15e579690446e0258.svg",
    "static/media/codegym.webp": "./static/media/codegym.734d6a0e0effb88a6c6e.webp",
    "index.html": "/index.html",
    "static/media/talksCardBack.svg": "./static/media/talksCardBack.73ed1545d58273ba64b0.svg",
    "main.3cf13eba.css.map": "./static/css/main.3cf13eba.css.map",
    "main.313cf465.js.map": "./static/js/main.313cf465.js.map",
    "64.bba8fa55.chunk.css.map": "./static/css/64.bba8fa55.chunk.css.map",
    "64.56dc6704.chunk.js.map": "./static/js/64.56dc6704.chunk.js.map",
    "769.b3cbb36b.chunk.css.map": "./static/css/769.b3cbb36b.chunk.css.map",
    "769.bda0d7b7.chunk.js.map": "./static/js/769.bda0d7b7.chunk.js.map"
  },
  "entrypoints": [
    "./static/css/main.3cf13eba.css",
    "./static/js/main.313cf465.js"
  ]
}